Titanic: Beyond the Movie
…
# Import the data

---

class: big-font

## `read_csv` (in the `readr` package)

```r
read_csv("data/titanic.csv")
```

```
# A tibble: 891 x 12
   PassengerId Survived Pclass Name  Sex     Age SibSp Parch Ticket  Fare
         <int>    <int>  <int> <chr> <chr> <dbl> <int> <int> <chr>  <dbl>
 1           1        0      3 Brau~ male     22     1     0 A/5 2~  7.25
 2           2        1      1 Cumi~ fema~    38     1     0 PC 17~ 71.3 
 3           3        1      3 Heik~ fema~    26     0     0 STON/~  7.92
 4           4        1      1 Futr~ fema~    35     1     0 113803 53.1 
 5           5        0      3 Alle~ male     35     0     0 373450  8.05
 6           6        0      3 Mora~ male     NA     0     0 330877  8.46
 7           7        0      1 McCa~ male     54     0     0 17463  51.9 
 8           8        0      3 Pals~ male      2     3     1 349909 21.1 
 9           9        1      3 John~ fema~    27     0     2 347742 11.1 
10          10        1      2 Nass~ fema~    14     1     0 237736 30.1 
# ... with 881 more rows, and 2 more variables: Cabin <chr>,
#   Embarked <chr>
```

---

class: big-font

The data set can be stored inside .red[a variable].

```r
titanic <- read_csv("data/titanic.csv")
titanic
```

```
# A tibble: 891 x 12
   PassengerId Survived Pclass Name  Sex     Age SibSp Parch Ticket  Fare
         <int>    <int>  <int> <chr> <chr> <dbl> <int> <int> <chr>  <dbl>
 1           1        0      3 Brau~ male     22     1     0 A/5 2~  7.25
 2           2        1      1 Cumi~ fema~    38     1     0 PC 17~ 71.3 
 3           3        1      3 Heik~ fema~    26     0     0 STON/~  7.92
 4           4        1      1 Futr~ fema~    35     1     0 113803 53.1 
 5           5        0      3 Alle~ male     35     0     0 373450  8.05
 6           6        0      3 Mora~ male     NA     0     0 330877  8.46
 7           7        0      1 McCa~ male     54     0     0 17463  51.9 
 8           8        0      3 Pals~ male      2     3     1 349909 21.1 
 9           9        1      3 John~ fema~    27     0     2 347742 11.1 
10          10        1      2 Nass~ fema~    14     1     0 237736 30.1 
# ... with 881 more rows, and 2 more variables: Cabin <chr>,
#   Embarked <chr>
```
…
<img src="https://media.giphy.com/media/5xtDarIwkXunoCmm7XG/giphy.gif" width="80%" />

---

class: big-font

.blue[Who are the adults in the titanic?]

```r
filter(titanic, Age >= 18)
```

```
## # A tibble: 601 x 12
##    PassengerId Survived Pclass Name  Sex     Age SibSp Parch Ticket  Fare
##          <int>    <int>  <int> <chr> <chr> <dbl> <int> <int> <chr>  <dbl>
##  1           1        0      3 Brau~ male     22     1     0 A/5 2~  7.25
##  2           2        1      1 Cumi~ fema~    38     1     0 PC 17~ 71.3 
##  3           3        1      3 Heik~ fema~    26     0     0 STON/~  7.92
##  4           4        1      1 Futr~ fema~    35     1     0 113803 53.1 
##  5           5        0      3 Alle~ male     35     0     0 373450  8.05
##  6           7        0      1 McCa~ male     54     0     0 17463  51.9 
##  7           9        1      3 John~ fema~    27     0     2 347742 11.1 
##  8          12        1      1 Bonn~ fema~    58     0     0 113783 26.6 
##  9          13        0      3 Saun~ male     20     0     0 A/5. ~  8.05
## 10          14        0      3 Ande~ male     39     1     5 347082 31.3 
## # ... with 591 more rows, and 2 more variables: Cabin <chr>,
## #   Embarked <chr>
```

---

class: big-font

.blue[Who are the senior citizens in the titanic?]

```r
filter(titanic, Age >= 60)
```

```
## # A tibble: 26 x 12
##    PassengerId Survived Pclass Name  Sex     Age SibSp Parch Ticket  Fare
##          <int>    <int>  <int> <chr> <chr> <dbl> <int> <int> <chr>  <dbl>
##  1          34        0      2 Whea~ male   66       0     0 C.A. ~ 10.5 
##  2          55        0      1 Ostb~ male   65       0     1 113509 62.0 
##  3          97        0      1 Gold~ male   71       0     0 PC 17~ 34.7 
##  4         117        0      3 Conn~ male   70.5     0     0 370369  7.75
##  5         171        0      1 Van ~ male   61       0     0 111240 33.5 
##  6         253        0      1 Stea~ male   62       0     0 113514 26.6 
##  7         276        1      1 Andr~ fema~  63       1     0 13502  78.0 
##  8         281        0      3 Duan~ male   65       0     0 336439  7.75
##  9         327        0      3 Nysv~ male   61       0     0 345364  6.24
## 10         367        1      1 Warr~ fema~  60       1     0 110813 75.2 
## # ... with 16 more rows, and 2 more variables: Cabin <chr>, Embarked <chr>
```

---

class: big-font

.blue[Who are the survivors?]

```r
filter(titanic, Survived == 1)
```

```
## # A tibble: 342 x 12
##    PassengerId Survived Pclass Name  Sex     Age SibSp Parch Ticket  Fare
##          <int>    <int>  <int> <chr> <chr> <dbl> <int> <int> <chr>  <dbl>
##  1           2        1      1 Cumi~ fema~    38     1     0 PC 17~ 71.3 
##  2           3        1      3 Heik~ fema~    26     0     0 STON/~  7.92
##  3           4        1      1 Futr~ fema~    35     1     0 113803 53.1 
##  4           9        1      3 John~ fema~    27     0     2 347742 11.1 
##  5          10        1      2 Nass~ fema~    14     1     0 237736 30.1 
##  6          11        1      3 Sand~ fema~     4     1     1 PP 95~ 16.7 
##  7          12        1      1 Bonn~ fema~    58     0     0 113783 26.6 
##  8          16        1      2 Hewl~ fema~    55     0     0 248706 16   
##  9          18        1      2 Will~ male     NA     0     0 244373 13   
## 10          20        1      3 Mass~ fema~    NA     0     0 2649    7.22
## # ... with 332 more rows, and 2 more variables: Cabin <chr>,
## #   Embarked <chr>
```

---

class: big-font

.blue[Who died after the tragedy?]

```r
filter(titanic, Survived == 0)
```

```
## # A tibble: 549 x 12
##    PassengerId Survived Pclass Name  Sex     Age SibSp Parch Ticket  Fare
##          <int>    <int>  <int> <chr> <chr> <dbl> <int> <int> <chr>  <dbl>
##  1           1        0      3 Brau~ male     22     1     0 A/5 2~  7.25
##  2           5        0      3 Alle~ male     35     0     0 373450  8.05
##  3           6        0      3 Mora~ male     NA     0     0 330877  8.46
##  4           7        0      1 McCa~ male     54     0     0 17463  51.9 
##  5           8        0      3 Pals~ male      2     3     1 349909 21.1 
##  6          13        0      3 Saun~ male     20     0     0 A/5. ~  8.05
##  7          14        0      3 Ande~ male     39     1     5 347082 31.3 
##  8          15        0      3 Vest~ fema~    14     0     0 350406  7.85
##  9          17        0      3 Rice~ male      2     4     1 382652 29.1 
## 10          19        0      3 Vand~ fema~    31     1     0 345763 18   
## # ... with 539 more rows, and 2 more variables: Cabin <chr>,
## #   Embarked <chr>
```

---

class: big-font

.blue[The women on the Titanic]

```r
filter(titanic, Sex == "female")
```

```
## # A tibble: 314 x 12
##    PassengerId Survived Pclass Name  Sex     Age SibSp Parch Ticket  Fare
##          <int>    <int>  <int> <chr> <chr> <dbl> <int> <int> <chr>  <dbl>
##  1           2        1      1 Cumi~ fema~    38     1     0 PC 17~ 71.3 
##  2           3        1      3 Heik~ fema~    26     0     0 STON/~  7.92
##  3           4        1      1 Futr~ fema~    35     1     0 113803 53.1 
##  4           9        1      3 John~ fema~    27     0     2 347742 11.1 
##  5          10        1      2 Nass~ fema~    14     1     0 237736 30.1 
##  6          11        1      3 Sand~ fema~     4     1     1 PP 95~ 16.7 
##  7          12        1      1 Bonn~ fema~    58     0     0 113783 26.6 
##  8          15        0      3 Vest~ fema~    14     0     0 350406  7.85
##  9          16        1      2 Hewl~ fema~    55     0     0 248706 16   
## 10          19        0      3 Vand~ fema~    31     1     0 345763 18   
## # ... with 304 more rows, and 2 more variables: Cabin <chr>,
## #   Embarked <chr>
```

---

class: big-font

.blue[The men on the Titanic.]

```r
filter(titanic, Sex == "male")
```

```
## # A tibble: 577 x 12
##    PassengerId Survived Pclass Name  Sex     Age SibSp Parch Ticket  Fare
##          <int>    <int>  <int> <chr> <chr> <dbl> <int> <int> <chr>  <dbl>
##  1           1        0      3 Brau~ male     22     1     0 A/5 2~  7.25
##  2           5        0      3 Alle~ male     35     0     0 373450  8.05
##  3           6        0      3 Mora~ male     NA     0     0 330877  8.46
##  4           7        0      1 McCa~ male     54     0     0 17463  51.9 
##  5           8        0      3 Pals~ male      2     3     1 349909 21.1 
##  6          13        0      3 Saun~ male     20     0     0 A/5. ~  8.05
##  7          14        0      3 Ande~ male     39     1     5 347082 31.3 
##  8          17        0      3 Rice~ male      2     4     1 382652 29.1 
##  9          18        1      2 Will~ male     NA     0     0 244373 13   
## 10          21        0      2 Fynn~ male     35     0     0 239865 26   
## # ... with 567 more rows, and 2 more variables: Cabin <chr>,
## #   Embarked <chr>
```

---

class: big-font

.blue[The teenagers on the Titanic]

```r
filter(titanic, Age >= 13, Age < 20)
```

```
## # A tibble: 95 x 12
##    PassengerId Survived Pclass Name  Sex     Age SibSp Parch Ticket   Fare
##          <int>    <int>  <int> <chr> <chr> <dbl> <int> <int> <chr>   <dbl>
##  1          10        1      2 Nass~ fema~    14     1     0 237736  30.1 
##  2          15        0      3 Vest~ fema~    14     0     0 350406   7.85
##  3          23        1      3 "McG~ fema~    15     0     0 330923   8.03
##  4          28        0      1 Fort~ male     19     3     2 19950  263   
##  5          39        0      3 Vand~ fema~    18     2     0 345764  18   
##  6          40        1      3 Nico~ fema~    14     1     0 2651    11.2 
##  7          45        1      3 Deva~ fema~    19     0     0 330958   7.88
##  8          50        0      3 Arno~ fema~    18     1     0 349237  17.8 
##  9          68        0      3 Crea~ male     19     0     0 S.P. ~   8.16
## 10          69        1      3 Ande~ fema~    17     4     2 31012~   7.92
## # ... with 85 more rows, and 2 more variables: Cabin <chr>, Embarked <chr>
```
…
---

class: big-font

.blue[All passengers except those from Southampton.]

```r
filter(titanic, Embarked != "S")
```

```
## # A tibble: 245 x 12
##    PassengerId Survived Pclass Name  Sex     Age SibSp Parch Ticket   Fare
##          <int>    <int>  <int> <chr> <chr> <dbl> <int> <int> <chr>   <dbl>
##  1           2        1      1 Cumi~ fema~    38     1     0 PC 17~  71.3 
##  2           6        0      3 Mora~ male     NA     0     0 330877   8.46
##  3          10        1      2 Nass~ fema~    14     1     0 237736  30.1 
##  4          17        0      3 Rice~ male      2     4     1 382652  29.1 
##  5          20        1      3 Mass~ fema~    NA     0     0 2649     7.22
##  6          23        1      3 "McG~ fema~    15     0     0 330923   8.03
##  7          27        0      3 Emir~ male     NA     0     0 2631     7.22
##  8          29        1      3 "O'D~ fema~    NA     0     0 330959   7.88
##  9          31        0      1 Uruc~ male     40     0     0 PC 17~  27.7 
## 10          32        1      1 Spen~ fema~    NA     1     0 PC 17~ 147.  
## # ... with 235 more rows, and 2 more variables: Cabin <chr>,
## #   Embarked <chr>
```
…
### *Put (things) in a neat, attractive or required order.*

<img src="https://media.giphy.com/media/unpSpZE6GSqc/giphy.gif" width="30%" />
---

class: big-font

.blue[Lowest fare paid on the Titanic!]

```r
arrange(titanic, Fare)
```

```
## # A tibble: 891 x 12
##    PassengerId Survived Pclass Name  Sex     Age SibSp Parch Ticket  Fare
##          <int>    <int>  <int> <chr> <chr> <dbl> <int> <int> <chr>  <dbl>
##  1         180        0      3 Leon~ male     36     0     0 LINE       0
##  2         264        0      1 Harr~ male     40     0     0 112059     0
##  3         272        1      3 Torn~ male     25     0     0 LINE       0
##  4         278        0      2 "Par~ male     NA     0     0 239853     0
##  5         303        0      3 John~ male     19     0     0 LINE       0
##  6         414        0      2 Cunn~ male     NA     0     0 239853     0
##  7         467        0      2 Camp~ male     NA     0     0 239853     0
##  8         482        0      2 "Fro~ male     NA     0     0 239854     0
##  9         598        0      3 John~ male     49     0     0 LINE       0
## 10         634        0      1 Parr~ male     NA     0     0 112052     0
## # ... with 881 more rows, and 2 more variables: Cabin <chr>,
## #   Embarked <chr>
```

---

class: big-font

.blue[Highest fare paid on the Titanic!]

```r
arrange(titanic, -Fare)
```

```
## # A tibble: 891 x 12
##    PassengerId Survived Pclass Name  Sex     Age SibSp Parch Ticket  Fare
##          <int>    <int>  <int> <chr> <chr> <dbl> <int> <int> <chr>  <dbl>
##  1         259        1      1 Ward~ fema~    35     0     0 PC 17~  512.
##  2         680        1      1 Card~ male     36     0     1 PC 17~  512.
##  3         738        1      1 Lesu~ male     35     0     0 PC 17~  512.
##  4          28        0      1 Fort~ male     19     3     2 19950   263 
##  5          89        1      1 Fort~ fema~    23     3     2 19950   263 
##  6         342        1      1 Fort~ fema~    24     3     2 19950   263 
##  7         439        0      1 Fort~ male     64     1     4 19950   263 
##  8         312        1      1 Ryer~ fema~    18     2     2 PC 17~  262.
##  9         743        1      1 "Rye~ fema~    21     2     2 PC 17~  262.
## 10         119        0      1 Baxt~ male     24     0     1 PC 17~  248.
## # ... with 881 more rows, and 2 more variables: Cabin <chr>,
## #   Embarked <chr>
```

---

class: big-font

.blue[Oldest passenger on the titanic.]

```r
arrange(titanic, -Age)
```

```
## # A tibble: 891 x 12
##    PassengerId Survived Pclass Name  Sex     Age SibSp Parch Ticket  Fare
##          <int>    <int>  <int> <chr> <chr> <dbl> <int> <int> <chr>  <dbl>
##  1         631        1      1 Bark~ male   80       0     0 27042  30   
##  2         852        0      3 Sven~ male   74       0     0 347060  7.78
##  3          97        0      1 Gold~ male   71       0     0 PC 17~ 34.7 
##  4         494        0      1 Arta~ male   71       0     0 PC 17~ 49.5 
##  5         117        0      3 Conn~ male   70.5     0     0 370369  7.75
##  6         673        0      2 Mitc~ male   70       0     0 C.A. ~ 10.5 
##  7         746        0      1 Cros~ male   70       1     1 WE/P ~ 71   
##  8          34        0      2 Whea~ male   66       0     0 C.A. ~ 10.5 
##  9          55        0      1 Ostb~ male   65       0     1 113509 62.0 
## 10         281        0      3 Duan~ male   65       0     0 336439  7.75
## # ... with 881 more rows, and 2 more variables: Cabin <chr>,
## #   Embarked <chr>
```

---

class: big-font

.blue[Arrange by Age and Fare]

```r
arrange(titanic, Age, -Fare)
```

```
## # A tibble: 891 x 12
##    PassengerId Survived Pclass Name  Sex     Age SibSp Parch Ticket   Fare
##          <int>    <int>  <int> <chr> <chr> <dbl> <int> <int> <chr>   <dbl>
##  1         804        1      3 Thom~ male   0.42     0     1 2625     8.52
##  2         756        1      2 Hama~ male   0.67     1     1 250649  14.5 
##  3         470        1      3 Bacl~ fema~  0.75     2     1 2666    19.3 
##  4         645        1      3 Bacl~ fema~  0.75     2     1 2666    19.3 
##  5          79        1      2 Cald~ male   0.83     0     2 248738  29   
##  6         832        1      2 Rich~ male   0.83     1     1 29106   18.8 
##  7         306        1      1 Alli~ male   0.92     1     2 113781 152.  
##  8         387        0      3 Good~ male   1        5     2 CA 21~  46.9 
##  9         165        0      3 Panu~ male   1        4     1 31012~  39.7 
## 10         184        1      2 Beck~ male   1        2     1 230136  39   
## # ... with 881 more rows, and 2 more variables: Cabin <chr>,
## #   Embarked <chr>
```

---

class: big-font

.blue[Arrange by Age and Fare]

```r
arrange(titanic, -Age, Fare)
```

```
## # A tibble: 891 x 12
##    PassengerId Survived Pclass Name  Sex     Age SibSp Parch Ticket  Fare
##          <int>    <int>  <int> <chr> <chr> <dbl> <int> <int> <chr>  <dbl>
##  1         631        1      1 Bark~ male   80       0     0 27042  30   
##  2         852        0      3 Sven~ male   74       0     0 347060  7.78
##  3          97        0      1 Gold~ male   71       0     0 PC 17~ 34.7 
##  4         494        0      1 Arta~ male   71       0     0 PC 17~ 49.5 
##  5         117        0      3 Conn~ male   70.5     0     0 370369  7.75
##  6         673        0      2 Mitc~ male   70       0     0 C.A. ~ 10.5 
##  7         746        0      1 Cros~ male   70       1     1 WE/P ~ 71   
##  8          34        0      2 Whea~ male   66       0     0 C.A. ~ 10.5 
##  9         281        0      3 Duan~ male   65       0     0 336439  7.75
## 10         457        0      1 Mill~ male   65       0     0 13509  26.6 
## # ... with 881 more rows, and 2 more variables: Cabin <chr>,
## #   Embarked <chr>
```
…
<img src="https://media.giphy.com/media/Ub4kWebdWWJP2/giphy.gif" width="70%" />

---

class: big-font

.blue[Lowest and highest fare paid by a class 1 passenger.]

```r
class_1 <- filter(titanic, Pclass == 1)
class_1
```

```
## # A tibble: 216 x 12
##    PassengerId Survived Pclass Name  Sex     Age SibSp Parch Ticket  Fare
##          <int>    <int>  <int> <chr> <chr> <dbl> <int> <int> <chr>  <dbl>
##  1           2        1      1 Cumi~ fema~    38     1     0 PC 17~  71.3
##  2           4        1      1 Futr~ fema~    35     1     0 113803  53.1
##  3           7        0      1 McCa~ male     54     0     0 17463   51.9
##  4          12        1      1 Bonn~ fema~    58     0     0 113783  26.6
##  5          24        1      1 Slop~ male     28     0     0 113788  35.5
##  6          28        0      1 Fort~ male     19     3     2 19950  263  
##  7          31        0      1 Uruc~ male     40     0     0 PC 17~  27.7
##  8          32        1      1 Spen~ fema~    NA     1     0 PC 17~ 147. 
##  9          35        0      1 Meye~ male     28     1     0 PC 17~  82.2
## 10          36        0      1 Holv~ male     42     1     0 113789  52  
## # ... with 206 more rows, and 2 more variables: Cabin <chr>,
## #   Embarked <chr>
```

---

class: big-font

.blue[Lowest fare paid by a class 1 passenger.]

```r
arrange(class_1, Fare)
```

```
## # A tibble: 216 x 12
##    PassengerId Survived Pclass Name  Sex     Age SibSp Parch Ticket  Fare
##          <int>    <int>  <int> <chr> <chr> <dbl> <int> <int> <chr>  <dbl>
##  1         264        0      1 Harr~ male     40     0     0 112059   0  
##  2         634        0      1 Parr~ male     NA     0     0 112052   0  
##  3         807        0      1 Andr~ male     39     0     0 112050   0  
##  4         816        0      1 Fry,~ male     NA     0     0 112058   0  
##  5         823        0      1 Reuc~ male     38     0     0 19972    0  
##  6         873        0      1 Carl~ male     33     0     0 695      5  
##  7         663        0      1 Coll~ male     47     0     0 5727    25.6
##  8         169        0      1 Baum~ male     NA     0     0 PC 17~  25.9
##  9         797        1      1 Lead~ fema~    49     0     0 17465   25.9
## 10         863        1      1 Swif~ fema~    48     0     0 17466   25.9
## # ... with 206 more rows, and 2 more variables: Cabin <chr>,
## #   Embarked <chr>
```
…
